R Notebook
…
aggDim1 <- apply(newcerealDR[,Dimension1],1, mean)
aggDim2 <- apply(newcerealDR[,Dimension2],1, mean)
aggDim3 <-  apply(newcerealDR[,Dimension3],1, mean)
aggDim4 <-  apply(newcerealDR[,Dimension4],1, mean)

newcerealDR[,26] <- round(aggDim1 , digits = 3)
newcerealDR[,27] <- round(aggDim2 , digits = 3)
newcerealDR[,28] <- round(aggDim3, digits = 2)
newcerealDR[,29] <- round(aggDim4 , digits = 2)

colnames(newcerealDR)[26:29] <- c("Health", "Taste", "Family", "Experience")
print(newcerealDR)

## # A tibble: 235 x 29
##    Filling Natural Fibre Sweet  Easy  Salt Satisfying Energy   Fun  Kids
##      <dbl>   <dbl> <dbl> <dbl> <dbl> <dbl>      <dbl>  <dbl> <dbl> <dbl>
##  1       5       5     5     1     2     1          5      4     1     4
##  2       1       2     2     1     5     2          5      1     1     5
##  3       5       4     5     5     5     3          5      5     5     5
##  4       5       5     5     3     5     2          5      5     5     5
##  5       4       5     3     2     5     2          5      4     5     5
##  6       4       4     4     2     5     2          5      4     5     5
##  7       4       4     3     2     5     1          5      5     5     5
##  8       4       3     3     2     5     1          5      4     4     5
##  9       4       3     3     2     5     1          5      4     4     5
## 10       4       3     3     2     5     1          5      4     4     5
## # ... with 225 more rows, and 19 more variables: Soggy <dbl>,
## #   Economical <dbl>, Health <dbl>, Family <dbl>, Calories <dbl>,
## #   Plain <dbl>, Crisp <dbl>, Regular <dbl>, Sugar <dbl>, Fruit <dbl>,
## #   Process <dbl>, Quality <dbl>, Treat <dbl>, Boring <dbl>,
## #   Nutritious <dbl>, Health <dbl>, Taste <dbl>, Family <dbl>,
## #   Experience <dbl>
…
